{
  "date": "2022-01-06",
  "sll": {
    "ada": 0.000072,
    "aed": 0.000326,
    "afn": 0.009339,
    "all": 0.009486,
    "amd": 0.042872,
    "ang": 0.00016,
    "aoa": 0.049038,
    "ars": 0.009148,
    "aud": 0.000123,
    "awg": 0.00016,
    "azn": 0.00015,
    "bam": 0.000153,
    "bbd": 0.000179,
    "bch": 0,
    "bdt": 0.007613,
    "bgn": 0.000153,
    "bhd": 0.000033,
    "bif": 0.178039,
    "bmd": 0.000089,
    "bnb": 0,
    "bnd": 0.00012,
    "bob": 0.000613,
    "brl": 0.000507,
    "bsd": 0.000089,
    "btc": 0,
    "btn": 0.006595,
    "bwp": 0.001047,
    "byn": 0.000229,
    "byr": 1.73913,
    "bzd": 0.000179,
    "cad": 0.000113,
    "cdf": 0.177906,
    "chf": 0.000081,
    "clf": 0.000003,
    "clp": 0.074403,
    "cny": 0.000564,
    "cop": 0.357469,
    "crc": 0.056978,
    "cuc": 0.000089,
    "cup": 0.002351,
    "cve": 0.008665,
    "czk": 0.001932,
    "djf": 0.015769,
    "dkk": 0.000584,
    "doge": 0.000555,
    "dop": 0.005085,
    "dzd": 0.012342,
    "egp": 0.001394,
    "ern": 0.001331,
    "etb": 0.004379,
    "etc": 0.000003,
    "eth": 0,
    "eur": 0.000078,
    "fjd": 0.000189,
    "fkp": 0.000067,
    "gbp": 0.000065,
    "gel": 0.000275,
    "ggp": 0.000067,
    "ghs": 0.000548,
    "gip": 0.000067,
    "gmd": 0.004685,
    "gnf": 0.807453,
    "gtq": 0.000685,
    "gyd": 0.018569,
    "hkd": 0.000692,
    "hnl": 0.002171,
    "hrk": 0.00059,
    "htg": 0.009055,
    "huf": 0.028421,
    "idr": 1.278159,
    "ils": 0.000275,
    "imp": 0.000067,
    "inr": 0.006604,
    "iqd": 0.129547,
    "irr": 3.748891,
    "isk": 0.011516,
    "jep": 0.000067,
    "jmd": 0.013661,
    "jod": 0.000063,
    "jpy": 0.010304,
    "kes": 0.01004,
    "kgs": 0.007525,
    "khr": 0.361668,
    "kmf": 0.038536,
    "kpw": 0.079858,
    "krw": 0.1065,
    "kwd": 0.000027,
    "kyd": 0.000074,
    "kzt": 0.038651,
    "lak": 0.997338,
    "lbp": 0.134078,
    "link": 0.000004,
    "lkr": 0.017929,
    "lrd": 0.012965,
    "lsl": 0.001409,
    "ltc": 0.000001,
    "ltl": 0.000262,
    "lvl": 0.000054,
    "lyd": 0.000408,
    "mad": 0.000821,
    "mdl": 0.001584,
    "mga": 0.351819,
    "mkd": 0.004834,
    "mmk": 0.157813,
    "mnt": 0.253628,
    "mop": 0.000713,
    "mro": 0.031677,
    "mur": 0.003824,
    "mvr": 0.001371,
    "mwk": 0.072316,
    "mxn": 0.001826,
    "myr": 0.000372,
    "mzn": 0.005664,
    "nad": 0.001409,
    "ngn": 0.036629,
    "nio": 0.003141,
    "nok": 0.000785,
    "npr": 0.010552,
    "nzd": 0.000131,
    "omr": 0.000034,
    "pab": 0.000089,
    "pen": 0.000352,
    "pgk": 0.000313,
    "php": 0.004564,
    "pkr": 0.015674,
    "pln": 0.000359,
    "pyg": 0.612255,
    "qar": 0.000323,
    "ron": 0.000388,
    "rsd": 0.009224,
    "rub": 0.006805,
    "rwf": 0.08984,
    "sar": 0.000333,
    "sbd": 0.000717,
    "scr": 0.001318,
    "sdg": 0.03882,
    "sek": 0.000809,
    "sgd": 0.00012,
    "shp": 0.000122,
    "sll": 1,
    "sos": 0.051996,
    "srd": 0.001894,
    "std": 1.836556,
    "svc": 0.000777,
    "syp": 0.222936,
    "szl": 0.001409,
    "thb": 0.00295,
    "theta": 0.00002,
    "tjs": 0.001003,
    "tmt": 0.000311,
    "tnd": 0.000255,
    "top": 0.000202,
    "trx": 0.001246,
    "try": 0.001215,
    "ttd": 0.000603,
    "twd": 0.00245,
    "tzs": 0.204082,
    "uah": 0.002438,
    "ugx": 0.314183,
    "usd": 0.000089,
    "usdt": 0.000088,
    "uyu": 0.003961,
    "uzs": 0.959627,
    "vef": 18973400.411508,
    "vnd": 2.019521,
    "vuv": 0.010049,
    "wst": 0.000231,
    "xaf": 0.051437,
    "xag": 0.000004,
    "xau": 0,
    "xcd": 0.00024,
    "xdr": 0.000064,
    "xlm": 0.000333,
    "xof": 0.05142,
    "xpf": 0.009366,
    "xrp": 0.000114,
    "yer": 0.022205,
    "zar": 0.00141,
    "zmk": 0.798686,
    "zmw": 0.001488,
    "zwl": 0.028571
  }
}